# Blender v2.67 (sub 0) OBJ File: 'screw.blend'
# www.blender.org
mtllib screw.mtl
o Schraube
v -0.122187 0.318324 -0.244375
v -0.244375 0.318324 -0.000000
v -0.125000 0.323764 -0.250000
v -0.250000 0.323764 -0.000000
v 0.122188 0.318324 -0.244375
v 0.125000 0.323764 -0.250000
v 0.244375 0.318324 -0.000000
v 0.250000 0.323764 -0.000000
v 0.122188 0.318324 0.244375
v 0.125000 0.323764 0.250000
v -0.122187 0.318324 0.244375
v -0.125000 0.323764 0.250000
v 0.000000 0.318324 -0.000000
v -0.134115 0.469009 -0.231769
v -0.125000 0.459716 -0.250000
v -0.250000 0.460749 -0.000000
v -0.224247 0.481268 -0.051506
v -0.201752 0.491129 -0.096497
v -0.180404 0.492478 -0.139191
v -0.158493 0.485587 -0.183013
v 0.125000 0.459716 -0.250000
v -0.089680 0.475788 -0.250000
v -0.043065 0.488849 -0.250000
v 0.000000 0.492924 -0.250000
v 0.043066 0.488849 -0.250000
v 0.089680 0.475788 -0.250000
v 0.250000 0.460749 -0.000000
v 0.180405 0.492478 -0.139191
v 0.201752 0.491129 -0.096496
v 0.224247 0.481268 -0.051506
v 0.134116 0.469009 -0.231769
v 0.158494 0.485587 -0.183013
v 0.134115 0.469009 0.231769
v 0.125000 0.459716 0.250000
v 0.201752 0.491129 0.096496
v 0.180405 0.492478 0.139191
v 0.250000 0.460749 0.000000
v 0.224247 0.481268 0.051506
v 0.160952 0.486360 0.178095
v 0.160952 0.486360 0.178095
v 0.158494 0.485587 0.183013
v -0.125000 0.459716 0.250000
v 0.089680 0.475788 0.250000
v 0.043065 0.488849 0.250000
v -0.000000 0.492924 0.250000
v -0.043066 0.488849 0.250000
v -0.089680 0.475788 0.250000
v -0.158494 0.485587 0.183012
v -0.180405 0.492478 0.139190
v -0.201752 0.491129 0.096496
v -0.134116 0.469009 0.231768
v -0.224247 0.481268 0.051505
v -0.212575 0.496700 -0.000000
v 0.000000 0.496700 -0.000000
v -0.196394 0.496700 -0.093934
v -0.176749 0.496700 -0.136371
v -0.208490 0.496700 -0.047887
v -0.150313 0.496700 -0.173567
v -0.118100 0.496700 -0.204093
v -0.041471 0.496700 -0.240744
v 0.000000 0.496700 -0.245461
v -0.081349 0.496700 -0.226776
v 0.041472 0.496700 -0.240744
v 0.081349 0.496700 -0.226776
v 0.176750 0.496700 -0.136371
v 0.196394 0.496700 -0.093934
v 0.208491 0.496700 -0.047887
v 0.118101 0.496700 -0.204093
v 0.150313 0.496700 -0.173567
v 0.196394 0.496701 0.093934
v 0.176750 0.496701 0.136371
v 0.212575 0.496700 0.000000
v 0.208490 0.496701 0.047887
v 0.153195 0.496701 0.169512
v 0.212575 0.496700 0.000000
v 0.153195 0.496701 0.169512
v 0.151169 0.496701 0.172363
v 0.150313 0.496701 0.173567
v 0.151169 0.496701 0.172363
v 0.118100 0.496701 0.204093
v 0.041471 0.496701 0.240744
v -0.000000 0.496700 0.245460
v 0.081349 0.496701 0.226776
v -0.041472 0.496700 0.240744
v -0.081349 0.496700 0.226775
v -0.118101 0.496700 0.204092
v -0.150313 0.496700 0.173566
v -0.176750 0.496700 0.136370
v -0.196394 0.496700 0.093933
v -0.208490 0.496701 0.047886
v 0.137741 0.313992 0.159049
v 0.173564 0.313992 0.102116
v 0.192397 0.313992 0.035187
v 0.192397 0.313992 -0.035187
v 0.173564 0.313992 -0.102116
v 0.137741 0.313992 -0.159050
v 0.088435 0.313992 -0.200415
v 0.030473 0.313992 -0.222161
v -0.030473 0.313992 -0.222161
v -0.088435 0.313992 -0.200414
v -0.137741 0.313992 -0.159050
v -0.173564 0.313992 -0.102116
v -0.192397 0.313992 -0.035187
v -0.192397 0.313992 0.035187
v -0.173564 0.313992 0.102116
v -0.137741 0.313992 0.159050
v -0.088435 0.313992 0.200414
v -0.030472 0.313992 0.222161
v 0.030473 0.313992 0.222161
v 0.088436 0.313992 0.200414
v 0.137741 0.317875 0.159049
v 0.173564 0.317875 0.102116
v 0.192397 0.317875 0.035187
v 0.192397 0.317875 -0.035187
v 0.173564 0.317875 -0.102116
v 0.137741 0.317875 -0.159050
v 0.088435 0.317875 -0.200415
v 0.030473 0.317875 -0.222161
v -0.030473 0.317875 -0.222161
v -0.088435 0.317875 -0.200414
v -0.137741 0.317875 -0.159050
v -0.173564 0.317875 -0.102116
v -0.192397 0.317875 -0.035187
v -0.192397 0.317875 0.035187
v -0.173564 0.317875 0.102116
v -0.137741 0.317875 0.159050
v -0.088435 0.317875 0.200414
v -0.030472 0.317875 0.222161
v 0.030473 0.317875 0.222161
v 0.088436 0.317875 0.200414
v 0.000000 0.313992 -0.000000
v -0.028551 -0.454689 -0.101465
v 0.000000 -0.456733 -0.106687
v -0.039192 -0.434255 -0.139281
v -0.054307 -0.452644 -0.086311
v -0.074548 -0.432211 -0.118480
v -0.074747 -0.450599 -0.062709
v -0.102606 -0.430166 -0.086081
v -0.087871 -0.448555 -0.032968
v -0.120621 -0.428121 -0.045255
v -0.092393 -0.446510 -0.000000
v -0.126828 -0.426077 -0.000000
v -0.087871 -0.444466 0.032968
v -0.120621 -0.424032 0.045255
v -0.074747 -0.442421 0.062709
v -0.102606 -0.421988 0.086080
v -0.054307 -0.440376 0.086311
v -0.074548 -0.419943 0.118480
v -0.028551 -0.438332 0.101465
v -0.039192 -0.417898 0.139281
v 0.000000 -0.415854 0.146449
v 0.000000 -0.436300 -0.146449
v -0.028551 -0.413822 -0.101465
v -0.054307 -0.411777 -0.086311
v -0.074747 -0.409733 -0.062709
v -0.087871 -0.407688 -0.032968
v -0.092393 -0.405643 -0.000000
v -0.087871 -0.403599 0.032968
v -0.074747 -0.401554 0.062709
v -0.054307 -0.399509 0.086311
v -0.028551 -0.397465 0.101465
v 0.000000 -0.395420 0.106686
v 0.000000 -0.415867 -0.106687
v -0.039192 -0.393389 -0.139281
v -0.074548 -0.391344 -0.118480
v -0.102606 -0.389299 -0.086081
v -0.120621 -0.387255 -0.045255
v -0.126828 -0.385210 -0.000000
v -0.120621 -0.383165 0.045255
v -0.102606 -0.381121 0.086080
v -0.074548 -0.379076 0.118479
v -0.039192 -0.377032 0.139281
v 0.000000 -0.374987 0.146449
v 0.000000 -0.395433 -0.146449
v -0.028551 -0.372955 -0.101465
v -0.054307 -0.370911 -0.086311
v -0.074747 -0.368866 -0.062709
v -0.087871 -0.366821 -0.032968
v -0.092393 -0.364777 -0.000000
v -0.087871 -0.362732 0.032968
v -0.074747 -0.360687 0.062709
v -0.054307 -0.358643 0.086311
v -0.028551 -0.356598 0.101465
v 0.000000 -0.354554 0.106686
v 0.000000 -0.375000 -0.106687
v -0.039192 -0.352522 -0.139281
v -0.074548 -0.350477 -0.118480
v -0.102606 -0.348433 -0.086081
v -0.120621 -0.346388 -0.045255
v -0.126828 -0.344343 -0.000000
v -0.120621 -0.342299 0.045255
v -0.102606 -0.340254 0.086080
v -0.074548 -0.338209 0.118479
v -0.039192 -0.336165 0.139281
v 0.000000 -0.334120 0.146449
v 0.000000 -0.354567 -0.146449
v -0.028551 -0.332089 -0.101465
v -0.054307 -0.330044 -0.086311
v -0.074747 -0.327999 -0.062709
v -0.087871 -0.325955 -0.032968
v -0.092393 -0.323910 -0.000000
v -0.087871 -0.321865 0.032968
v -0.074747 -0.319821 0.062709
v -0.054307 -0.317776 0.086311
v -0.028551 -0.315731 0.101465
v 0.000000 -0.313687 0.106686
v 0.000000 -0.334133 -0.106687
v -0.039192 -0.311655 -0.139281
v 0.000000 -0.313700 -0.146449
v -0.074548 -0.309611 -0.118480
v -0.102606 -0.307566 -0.086081
v -0.120621 -0.305521 -0.045255
v -0.126828 -0.303477 -0.000000
v -0.120621 -0.301432 0.045255
v -0.102606 -0.299387 0.086080
v -0.074548 -0.297343 0.118479
v -0.039192 -0.295298 0.139281
v 0.000000 -0.293253 0.146449
v -0.028551 -0.291222 -0.101465
v 0.000000 -0.293267 -0.106687
v -0.054307 -0.289177 -0.086311
v -0.074747 -0.287133 -0.062709
v -0.087871 -0.285088 -0.032968
v -0.092393 -0.283043 -0.000000
v -0.087871 -0.280999 0.032968
v -0.074747 -0.278954 0.062708
v -0.054307 -0.276909 0.086311
v -0.028551 -0.274865 0.101465
v 0.000000 -0.272820 0.106686
v -0.039192 -0.270789 -0.139281
v 0.000000 -0.272833 -0.146449
v -0.074548 -0.268744 -0.118480
v -0.102606 -0.266699 -0.086081
v -0.120621 -0.264655 -0.045255
v -0.126828 -0.262610 -0.000000
v -0.120621 -0.260565 0.045255
v -0.102606 -0.258521 0.086080
v -0.074548 -0.256476 0.118479
v -0.039192 -0.254431 0.139281
v 0.000000 -0.252387 0.146449
v -0.028551 -0.250355 -0.101465
v 0.000000 -0.252400 -0.106687
v -0.054307 -0.248311 -0.086311
v -0.074747 -0.246266 -0.062709
v -0.087871 -0.244221 -0.032968
v -0.092393 -0.242177 -0.000000
v -0.087871 -0.240132 0.032968
v -0.074747 -0.238087 0.062708
v -0.054307 -0.236043 0.086311
v -0.028551 -0.233998 0.101465
v 0.000000 -0.231953 0.106686
v -0.039192 -0.229922 -0.139281
v 0.000000 -0.231967 -0.146449
v -0.074548 -0.227877 -0.118480
v -0.102606 -0.225833 -0.086081
v -0.120621 -0.223788 -0.045255
v -0.126828 -0.221743 -0.000000
v -0.120621 -0.219699 0.045255
v -0.102606 -0.217654 0.086080
v -0.074548 -0.215609 0.118479
v -0.039192 -0.213565 0.139281
v 0.000000 -0.211520 0.146449
v -0.028551 -0.209488 -0.101465
v 0.000000 -0.211533 -0.106687
v -0.054307 -0.207444 -0.086311
v -0.074747 -0.205399 -0.062709
v -0.087871 -0.203355 -0.032968
v -0.092393 -0.201310 -0.000000
v -0.087871 -0.199265 0.032968
v -0.074747 -0.197221 0.062708
v -0.054307 -0.195176 0.086311
v -0.028551 -0.193131 0.101465
v 0.000000 -0.191087 0.106686
v -0.039192 -0.189055 -0.139281
v 0.000000 -0.191100 -0.146449
v -0.074548 -0.187011 -0.118480
v -0.102606 -0.184966 -0.086081
v -0.120621 -0.182921 -0.045256
v -0.126828 -0.180877 -0.000000
v -0.120621 -0.178832 0.045255
v -0.102606 -0.176787 0.086080
v -0.074548 -0.174743 0.118479
v -0.039192 -0.172698 0.139281
v 0.000000 -0.170653 0.146449
v -0.028551 -0.168622 -0.101465
v 0.000000 -0.170667 -0.106687
v -0.054307 -0.166577 -0.086311
v -0.074747 -0.164533 -0.062709
v -0.087871 -0.162488 -0.032968
v -0.092393 -0.160443 -0.000000
v -0.087871 -0.158399 0.032968
v -0.074747 -0.156354 0.062708
v -0.054307 -0.154309 0.086311
v -0.028551 -0.152265 0.101465
v 0.000000 -0.150220 0.106686
v -0.039192 -0.148188 -0.139282
v 0.000000 -0.150233 -0.146449
v -0.074548 -0.146144 -0.118480
v -0.102606 -0.144099 -0.086081
v -0.120621 -0.142055 -0.045256
v -0.126828 -0.140010 -0.000000
v -0.120621 -0.137965 0.045255
v -0.102606 -0.135921 0.086080
v -0.074548 -0.133876 0.118479
v -0.039192 -0.131831 0.139281
v 0.000000 -0.129787 0.146449
v -0.028551 -0.127755 -0.101465
v 0.000000 -0.129800 -0.106687
v -0.051085 -0.125710 -0.081191
v -0.066446 -0.123666 -0.055745
v 0.000000 -0.436287 0.106686
v 0.000000 -0.436293 0.106699
v 0.000000 -0.436293 0.106699
v 0.000000 -0.456727 -0.106699
v 0.000000 -0.456727 -0.106699
v 0.000000 -0.415860 0.146436
v 0.000000 -0.415860 0.146436
v 0.000000 -0.436294 -0.146436
v 0.000000 -0.436294 -0.146436
v 0.000000 -0.395427 0.106699
v 0.000000 -0.395427 0.106699
v 0.000000 -0.415860 -0.106699
v 0.000000 -0.415860 -0.106699
v 0.000000 -0.374993 0.146436
v 0.000000 -0.374993 0.146436
v 0.000000 -0.395427 -0.146436
v 0.000000 -0.395427 -0.146436
v 0.000000 -0.354560 0.106699
v 0.000000 -0.354560 0.106699
v 0.000000 -0.374993 -0.106699
v 0.000000 -0.374993 -0.106699
v 0.000000 -0.354560 -0.146436
v 0.000000 -0.354560 -0.146436
v -0.079092 -0.123303 -0.032839
v -0.080507 -0.123303 -0.030206
v -0.068518 -0.123303 -0.051048
v -0.086291 -0.123303 -0.006669
v -0.087714 -0.123303 -0.000000
v -0.087002 -0.123303 0.021782
v -0.086334 -0.123303 0.032391
v -0.080624 -0.123303 0.050349
v -0.075918 -0.123303 0.063690
v -0.067109 -0.123303 0.076635
v -0.056958 -0.123303 0.090524
v -0.047035 -0.123303 0.098206
v -0.030891 -0.123303 0.109781
v -0.021620 -0.123303 0.112818
v 0.000000 -0.123303 0.118967
v -0.010070 -0.123303 -0.103213
v -0.027441 -0.123303 -0.097521
v 0.000000 -0.123303 -0.106077
v 0.000000 -0.123303 -0.106077
v -0.033479 -0.123303 -0.093192
v -0.050396 -0.123303 -0.080095
v -0.027441 -0.123303 -0.097521
v -0.052875 -0.123303 -0.076704
v -0.066886 -0.123303 -0.056114
v -0.067105 -0.123303 -0.055494
v 0.074748 -0.462854 -0.062709
v 0.087871 -0.464899 -0.032968
v 0.102607 -0.442421 -0.086081
v 0.054308 -0.460810 -0.086311
v 0.074548 -0.440376 -0.118480
v 0.028551 -0.458765 -0.101465
v 0.039193 -0.438332 -0.139281
v 0.000000 -0.436287 -0.146449
v 0.054308 -0.419943 -0.086311
v 0.074748 -0.421988 -0.062709
v 0.028551 -0.417898 -0.101465
v 0.000000 -0.415854 -0.106687
v 0.028551 -0.434255 0.101465
v 0.000000 -0.436300 0.106686
v 0.039192 -0.413822 0.139281
v 0.054308 -0.432211 0.086311
v 0.074548 -0.411777 0.118479
v 0.074748 -0.430166 0.062709
v 0.102607 -0.409733 0.086080
v 0.087871 -0.428121 0.032968
v 0.120621 -0.407688 0.045255
v 0.092393 -0.426077 -0.000000
v 0.126829 -0.405643 -0.000000
v 0.087871 -0.424032 -0.032968
v 0.120621 -0.403599 -0.045255
v 0.102607 -0.401554 -0.086081
v 0.074548 -0.399510 -0.118480
v 0.039193 -0.397465 -0.139281
v 0.000000 -0.395420 -0.146449
v 0.000000 -0.415867 0.146449
v 0.028551 -0.393389 0.101465
v 0.054308 -0.391344 0.086311
v 0.074748 -0.389299 0.062709
v 0.087871 -0.387255 0.032968
v 0.092393 -0.385210 -0.000000
v 0.087871 -0.383166 -0.032968
v 0.074748 -0.381121 -0.062709
v 0.054308 -0.379076 -0.086311
v 0.028551 -0.377031 -0.101465
v 0.000000 -0.374987 -0.106687
v 0.000000 -0.395433 0.106686
v 0.039192 -0.372955 0.139281
v 0.074548 -0.370911 0.118479
v 0.102607 -0.368866 0.086080
v 0.120621 -0.366821 0.045255
v 0.126829 -0.364777 -0.000000
v 0.120621 -0.362732 -0.045255
v 0.102607 -0.360687 -0.086081
v 0.074548 -0.358643 -0.118480
v 0.039193 -0.356598 -0.139281
v 0.000000 -0.354554 -0.146449
v 0.000000 -0.375000 0.146449
v 0.028551 -0.352522 0.101465
v 0.054308 -0.350477 0.086311
v 0.074748 -0.348433 0.062709
v 0.087871 -0.346388 0.032968
v 0.092393 -0.344343 -0.000000
v 0.087871 -0.342299 -0.032968
v 0.074748 -0.340254 -0.062709
v 0.054308 -0.338209 -0.086311
v 0.028551 -0.336165 -0.101465
v 0.000000 -0.334120 -0.106687
v 0.000000 -0.354567 0.106686
v 0.039192 -0.332089 0.139281
v 0.074548 -0.330044 0.118479
v 0.102607 -0.327999 0.086080
v 0.120621 -0.325955 0.045255
v 0.126829 -0.323910 -0.000000
v 0.120621 -0.321865 -0.045255
v 0.102607 -0.319821 -0.086081
v 0.074548 -0.317776 -0.118480
v 0.039192 -0.315731 -0.139281
v 0.000000 -0.313687 -0.146449
v 0.000000 -0.334133 0.146449
v 0.028551 -0.311655 0.101465
v 0.000000 -0.313700 0.106686
v 0.054308 -0.309611 0.086311
v 0.074748 -0.307566 0.062709
v 0.087871 -0.305521 0.032968
v 0.092393 -0.303477 -0.000000
v 0.087871 -0.301432 -0.032968
v 0.074748 -0.299387 -0.062709
v 0.054308 -0.297343 -0.086311
v 0.028551 -0.295298 -0.101465
v 0.000000 -0.293254 -0.106687
v 0.039192 -0.291222 0.139281
v 0.000000 -0.293267 0.146449
v 0.074548 -0.289177 0.118479
v 0.102607 -0.287133 0.086080
v 0.120621 -0.285088 0.045255
v 0.126829 -0.283043 -0.000000
v 0.120621 -0.280999 -0.045255
v 0.102607 -0.278954 -0.086081
v 0.074548 -0.276909 -0.118480
v 0.039192 -0.274865 -0.139281
v 0.000000 -0.272820 -0.146449
v 0.028551 -0.270789 0.101465
v 0.000000 -0.272833 0.106686
v 0.054308 -0.268744 0.086311
v 0.074748 -0.266699 0.062708
v 0.087871 -0.264655 0.032968
v 0.092393 -0.262610 -0.000000
v 0.087871 -0.260565 -0.032968
v 0.074748 -0.258521 -0.062709
v 0.054308 -0.256476 -0.086311
v 0.028551 -0.254431 -0.101465
v 0.000000 -0.252387 -0.106687
v 0.039192 -0.250355 0.139281
v 0.000000 -0.252400 0.146449
v 0.074548 -0.248311 0.118479
v 0.102607 -0.246266 0.086080
v 0.120621 -0.244221 0.045255
v 0.126829 -0.242177 -0.000000
v 0.120621 -0.240132 -0.045255
v 0.102607 -0.238087 -0.086081
v 0.074548 -0.236043 -0.118480
v 0.039192 -0.233998 -0.139281
v 0.000000 -0.231954 -0.146449
v 0.028551 -0.229922 0.101465
v 0.000000 -0.231967 0.106686
v 0.054308 -0.227877 0.086311
v 0.074748 -0.225833 0.062708
v 0.087871 -0.223788 0.032968
v 0.092393 -0.221743 -0.000000
v 0.087871 -0.219699 -0.032968
v 0.074748 -0.217654 -0.062709
v 0.054308 -0.215609 -0.086311
v 0.028551 -0.213565 -0.101465
v 0.000000 -0.211520 -0.106687
v 0.039192 -0.209488 0.139281
v 0.000000 -0.211533 0.146449
v 0.074548 -0.207444 0.118479
v 0.102607 -0.205399 0.086080
v 0.120621 -0.203355 0.045255
v 0.126829 -0.201310 -0.000000
v 0.120621 -0.199265 -0.045255
v 0.102607 -0.197221 -0.086081
v 0.074548 -0.195176 -0.118480
v 0.039192 -0.193131 -0.139281
v 0.000000 -0.191087 -0.146449
v 0.028551 -0.189055 0.101465
v 0.000000 -0.191100 0.106686
v 0.054308 -0.187011 0.086311
v 0.074748 -0.184966 0.062708
v 0.087871 -0.182921 0.032968
v 0.092393 -0.180877 -0.000000
v 0.087871 -0.178832 -0.032968
v 0.074748 -0.176787 -0.062709
v 0.054308 -0.174743 -0.086311
v 0.028551 -0.172698 -0.101465
v 0.000000 -0.170653 -0.106687
v 0.039192 -0.168622 0.139281
v 0.000000 -0.170667 0.146449
v 0.074548 -0.166577 0.118479
v 0.102607 -0.164533 0.086080
v 0.120621 -0.162488 0.045255
v 0.126829 -0.160443 -0.000000
v 0.120621 -0.158399 -0.045255
v 0.102607 -0.156354 -0.086081
v 0.074548 -0.154309 -0.118480
v 0.039192 -0.152265 -0.139281
v 0.000000 -0.150220 -0.146449
v 0.028551 -0.148188 0.101465
v 0.000000 -0.150233 0.106686
v 0.054308 -0.146144 0.086311
v 0.074748 -0.144099 0.062708
v 0.087871 -0.142055 0.032968
v 0.092393 -0.140010 -0.000000
v 0.087871 -0.137965 -0.032968
v 0.074748 -0.135921 -0.062709
v 0.054308 -0.133876 -0.086312
v 0.028551 -0.131831 -0.101465
v 0.000000 -0.129787 -0.106687
v 0.039192 -0.127755 0.139281
v 0.000000 -0.129800 0.146448
v 0.070126 -0.125711 0.111450
v 0.091211 -0.123666 0.076520
v 0.104175 -0.123303 0.041389
v 0.104829 -0.123303 0.039330
v 0.094056 -0.123303 0.070072
v 0.107002 -0.123303 0.004858
v 0.107161 -0.123303 -0.000000
v 0.104829 -0.123303 0.039330
v 0.100783 -0.123303 -0.029902
v 0.099003 -0.123303 -0.037145
v 0.107161 -0.123303 -0.000000
v 0.086657 -0.123303 -0.060105
v 0.081739 -0.123303 -0.068574
v 0.066347 -0.123303 -0.083574
v 0.057587 -0.123303 -0.091523
v 0.081739 -0.123303 -0.068574
v 0.041956 -0.123303 -0.098875
v 0.029329 -0.123303 -0.104228
v 0.015751 -0.123303 -0.105369
v 0.000000 -0.123303 -0.106054
v 0.029329 -0.123303 -0.104228
v 0.007336 -0.123303 0.118625
v 0.032778 -0.123303 0.116487
v 0.000000 -0.123303 0.118944
v 0.000000 -0.123303 0.118944
v 0.064148 -0.123303 0.101951
v 0.037501 -0.123303 0.114485
v 0.064148 -0.123303 0.101951
v 0.032778 -0.123303 0.116487
v 0.090771 -0.123303 0.076151
v 0.066288 -0.123303 0.100010
v 0.090771 -0.123303 0.076151
v 0.064148 -0.123303 0.101951
v 0.090999 -0.123303 0.075757
v 0.035240 -0.123303 0.125235
v 0.000000 -0.123303 0.131680
v 0.039643 -0.048161 0.140882
v 0.000000 -0.048161 0.148132
v 0.067031 -0.123303 0.106531
v 0.075405 -0.048161 0.119841
v 0.092260 -0.123303 0.077400
v 0.103786 -0.048161 0.087070
v 0.108458 -0.123303 0.040691
v 0.122008 -0.048161 0.045775
v 0.114039 -0.123303 -0.000000
v 0.128287 -0.048161 -0.000000
v 0.108457 -0.123303 -0.040692
v 0.122008 -0.048161 -0.045776
v 0.092259 -0.123303 -0.077400
v 0.103786 -0.048161 -0.087071
v 0.067030 -0.123303 -0.106532
v 0.075405 -0.048161 -0.119842
v 0.035240 -0.123303 -0.125236
v 0.039643 -0.048161 -0.140883
v 0.000000 -0.123303 -0.131681
v 0.000000 -0.048161 -0.148133
v -0.035240 -0.123303 -0.125236
v -0.039643 -0.048161 -0.140883
v -0.067030 -0.123303 -0.106532
v -0.075405 -0.048161 -0.119842
v -0.092259 -0.123303 -0.077400
v -0.103786 -0.048161 -0.087070
v -0.108457 -0.123303 -0.040692
v -0.122007 -0.048161 -0.045776
v -0.114038 -0.123303 -0.000000
v -0.128286 -0.048161 -0.000000
v -0.108457 -0.123303 0.040691
v -0.122007 -0.048161 0.045775
v -0.092259 -0.123303 0.077400
v -0.103786 -0.048161 0.087070
v -0.067030 -0.123303 0.106532
v -0.075404 -0.048161 0.119841
v -0.035239 -0.123303 0.125235
v -0.039642 -0.048161 0.140882
v 0.039643 0.313520 0.140882
v 0.000000 0.313520 0.148132
v 0.075405 0.313520 0.119841
v 0.103786 0.313520 0.087070
v 0.122008 0.313520 0.045775
v 0.128287 0.313520 -0.000000
v 0.122008 0.313520 -0.045776
v 0.103786 0.313520 -0.087071
v 0.075405 0.313520 -0.119842
v 0.039643 0.313520 -0.140883
v 0.000000 0.313520 -0.148133
v -0.039643 0.313520 -0.140883
v -0.075405 0.313520 -0.119842
v -0.103786 0.313520 -0.087070
v -0.122008 0.313520 -0.045776
v -0.128286 0.313520 -0.000000
v -0.122007 0.313520 0.045775
v -0.103786 0.313520 0.087070
v -0.075404 0.313520 0.119841
v -0.039642 0.313520 0.140882
v 0.000000 -0.123303 -0.000000
v 0.000000 -0.456720 -0.106687
v -0.101881 -0.457296 -0.038225
v -0.101881 -0.457296 -0.038225
v -0.093890 -0.457738 -0.054666
v -0.085351 -0.458377 -0.071604
v -0.108749 -0.456216 -0.000000
v -0.108749 -0.456216 -0.000000
v -0.105197 -0.456706 -0.020527
v -0.104972 -0.455136 0.039384
v -0.104973 -0.455136 0.039384
v -0.107297 -0.455674 0.016528
v -0.090610 -0.454055 0.076016
v -0.090610 -0.454055 0.076016
v -0.099690 -0.454643 0.053219
v -0.066787 -0.452975 0.106145
v -0.066787 -0.452975 0.106145
v -0.082745 -0.453611 0.086175
v -0.035614 -0.451895 0.126566
v -0.035614 -0.451895 0.126566
v -0.057706 -0.452579 0.112250
v -0.026608 -0.451548 0.128816
v -0.085350 -0.458377 -0.071604
v -0.020747 -0.460832 -0.113760
v -0.031596 -0.460537 -0.112289
v -0.031596 -0.460537 -0.112289
v 0.000000 -0.461617 -0.116191
v -0.049494 -0.459801 -0.103176
v -0.061055 -0.459457 -0.097037
v -0.061055 -0.459457 -0.097037
v -0.074675 -0.458769 -0.082979
v 0.000000 -0.450814 0.134956
v 0.000000 -0.450814 0.134956
v 0.094428 -0.465736 -0.000000
v 0.092394 -0.466943 -0.000000
v 0.094429 -0.465736 0.000000
v 0.092072 -0.467089 0.002341
v 0.117061 -0.446687 -0.043919
v 0.117061 -0.446687 -0.043919
v 0.102334 -0.459027 -0.015937
v 0.118268 -0.444198 -0.050589
v 0.036616 -0.449741 0.130124
v 0.036616 -0.449741 0.130124
v 0.007889 -0.450523 0.134020
v 0.070602 -0.448661 0.112208
v 0.070602 -0.448661 0.112209
v 0.042687 -0.449491 0.127033
v 0.098491 -0.447580 0.082627
v 0.098490 -0.447580 0.082627
v 0.074585 -0.448460 0.108097
v 0.117328 -0.446500 0.044020
v 0.117328 -0.446500 0.044020
v 0.100528 -0.447428 0.078587
v 0.124991 -0.445420 0.000000
v 0.124991 -0.445420 0.000000
v 0.124991 -0.445420 -0.000000
v 0.117911 -0.446396 0.040910
v 0.120419 -0.444340 -0.045179
v 0.120419 -0.444340 -0.045180
v 0.120419 -0.444340 -0.045180
v 0.124844 -0.445365 -0.001680
v 0.120351 -0.444333 -0.045358
v 0.092484 -0.467015 0.000145
v 0.092509 -0.467012 0.000000
v 0.092509 -0.467012 -0.000000
v 0.092509 -0.467012 -0.000000
v 0.089752 -0.465984 -0.031377
v 0.089527 -0.465932 -0.033589
v 0.089527 -0.465932 -0.033589
v 0.089527 -0.465932 -0.033589
v 0.079030 -0.464952 -0.061080
v 0.077471 -0.464851 -0.064993
v 0.077471 -0.464851 -0.064993
v 0.060992 -0.463921 -0.086279
v 0.057241 -0.463771 -0.090974
v 0.057241 -0.463771 -0.090974
v 0.036991 -0.462889 -0.104587
v 0.030596 -0.462691 -0.108731
v 0.030596 -0.462691 -0.108731
v 0.008957 -0.461857 -0.114136
v 0.000000 -0.461611 -0.116203
v 0.000000 -0.461611 -0.116203
v 0.000000 -0.461611 -0.116203
v 0.000000 -0.461611 -0.116203
v 0.000000 -0.450821 0.134944
v 0.000000 -0.450821 0.134944
v 0.000000 -0.450821 0.134944
v -0.023985 -0.503299 0.085238
v 0.000000 -0.503299 0.089625
v 0.000000 -0.503299 -0.000000
v -0.045622 -0.503299 0.072508
v -0.062794 -0.503299 0.052680
v -0.073819 -0.503299 0.027695
v -0.077617 -0.503299 -0.000000
v -0.073819 -0.503299 -0.027696
v -0.062794 -0.503299 -0.052681
v -0.045622 -0.503299 -0.072509
v -0.023985 -0.503299 -0.085239
v 0.000000 -0.503299 -0.089625
v 0.023986 -0.503299 -0.085239
v 0.045623 -0.503299 -0.072508
v 0.062795 -0.503299 -0.052680
v 0.073819 -0.503299 -0.027696
v 0.077618 -0.503299 0.000000
v 0.073819 -0.503299 0.027696
v 0.062794 -0.503299 0.052680
v 0.045623 -0.503299 0.072508
v 0.023985 -0.503299 0.085239
usemtl 1_-_Default
s off
f 3 1 2
f 4 3 2
f 1 6 5
f 1 3 6
f 8 7 5
f 6 8 5
f 10 9 7
f 8 10 7
f 12 11 9
f 10 12 9
f 4 2 11
f 12 4 11
f 1 13 2
f 13 1 5
f 13 5 7
f 13 7 9
f 13 9 11
f 13 11 2
f 14 3 4
f 14 15 3
f 17 14 4
f 17 4 16
f 12 16 4
f 17 18 14
f 14 18 20
f 19 20 18
f 21 6 3
f 15 21 3
f 25 22 23
f 24 25 23
f 22 26 15
f 21 15 26
f 25 26 22
f 27 8 6
f 21 27 6
f 32 28 21
f 29 21 28
f 29 30 21
f 27 21 30
f 31 32 21
f 33 10 8
f 27 33 8
f 33 34 10
f 40 37 38
f 35 40 38
f 36 40 35
f 37 39 27
f 33 27 39
f 39 37 40
f 41 33 39
f 42 12 10
f 34 42 10
f 46 43 44
f 45 46 44
f 43 47 34
f 42 34 47
f 46 47 43
f 42 16 12
f 50 48 49
f 51 52 42
f 16 42 52
f 48 52 51
f 50 52 48
f 57 53 54
f 58 57 54
f 55 57 58
f 56 55 58
f 59 58 54
f 59 54 62
f 61 60 63
f 63 60 62
f 64 62 54
f 63 62 64
f 64 54 68
f 68 66 65
f 67 68 54
f 66 68 67
f 72 67 54
f 69 68 65
f 79 72 54
f 79 76 72
f 70 73 74
f 71 70 74
f 72 74 75
f 73 75 74
f 74 72 76
f 78 77 54
f 54 77 79
f 80 78 54
f 80 54 83
f 82 81 84
f 84 81 83
f 85 83 54
f 84 83 85
f 85 54 86
f 53 86 54
f 87 86 53
f 87 53 88
f 53 89 88
f 90 89 53
f 17 16 53
f 53 57 17
f 57 55 17
f 18 17 55
f 55 56 18
f 19 18 56
f 20 19 58
f 19 56 58
f 14 20 58
f 58 59 14
f 62 14 59
f 15 14 62
f 22 15 62
f 62 60 22
f 23 22 60
f 60 61 23
f 24 23 61
f 25 24 63
f 24 61 63
f 26 25 64
f 25 63 64
f 21 26 64
f 68 21 64
f 28 32 65
f 66 28 65
f 29 28 66
f 67 29 66
f 30 29 67
f 27 30 67
f 67 72 27
f 31 21 68
f 68 69 31
f 32 31 69
f 69 65 32
f 37 27 72
f 72 75 37
f 75 73 37
f 38 37 73
f 73 70 38
f 35 38 70
f 70 71 35
f 36 35 71
f 76 79 40
f 40 36 74
f 36 71 74
f 40 74 76
f 41 39 77
f 40 77 39
f 77 78 41
f 33 41 78
f 77 40 79
f 78 80 33
f 83 33 80
f 34 33 83
f 43 34 83
f 83 81 43
f 44 43 81
f 81 82 44
f 45 44 82
f 46 45 84
f 45 82 84
f 47 46 85
f 46 84 85
f 42 47 85
f 86 42 85
f 51 42 86
f 86 87 51
f 48 51 87
f 88 48 87
f 49 48 88
f 89 49 88
f 50 49 89
f 89 90 50
f 52 50 90
f 16 52 90
f 90 53 16
f 91 92 112
f 91 112 111
f 92 93 113
f 92 113 112
f 93 94 114
f 93 114 113
f 94 95 115
f 94 115 114
f 95 96 116
f 95 116 115
f 96 97 117
f 96 117 116
f 97 98 118
f 97 118 117
f 98 99 119
f 98 119 118
f 99 100 120
f 99 120 119
f 100 101 121
f 100 121 120
f 101 102 122
f 101 122 121
f 102 103 123
f 102 123 122
f 103 104 124
f 103 124 123
f 104 105 125
f 104 125 124
f 105 106 126
f 105 126 125
f 106 107 127
f 106 127 126
f 107 108 128
f 107 128 127
f 108 109 129
f 108 129 128
f 109 110 130
f 109 130 129
f 110 91 111
f 110 111 130
f 92 91 131
f 93 92 131
f 94 93 131
f 95 94 131
f 96 95 131
f 97 96 131
f 98 97 131
f 99 98 131
f 100 99 131
f 101 100 131
f 102 101 131
f 103 102 131
f 104 103 131
f 105 104 131
f 106 105 131
f 107 106 131
f 108 107 131
f 109 108 131
f 110 109 131
f 91 110 131
f 133 132 134
f 132 135 136
f 132 136 134
f 135 137 138
f 135 138 136
f 137 139 140
f 137 140 138
f 139 141 142
f 139 142 140
f 141 143 144
f 141 144 142
f 143 145 146
f 143 146 144
f 145 147 148
f 145 148 146
f 147 149 150
f 147 150 148
f 149 151 150
f 152 134 153
f 134 136 154
f 134 154 153
f 136 138 155
f 136 155 154
f 138 140 156
f 138 156 155
f 140 142 157
f 140 157 156
f 142 144 158
f 142 158 157
f 144 146 159
f 144 159 158
f 146 148 160
f 146 160 159
f 148 150 161
f 148 161 160
f 150 162 161
f 163 153 164
f 153 154 165
f 153 165 164
f 154 155 166
f 154 166 165
f 155 156 167
f 155 167 166
f 156 157 168
f 156 168 167
f 157 158 169
f 157 169 168
f 158 159 170
f 158 170 169
f 159 160 171
f 159 171 170
f 160 161 172
f 160 172 171
f 161 173 172
f 174 164 175
f 164 165 176
f 164 176 175
f 165 166 177
f 165 177 176
f 166 167 178
f 166 178 177
f 167 168 179
f 167 179 178
f 168 169 180
f 168 180 179
f 169 170 181
f 169 181 180
f 170 171 182
f 170 182 181
f 171 172 183
f 171 183 182
f 172 184 183
f 185 175 186
f 175 176 187
f 175 187 186
f 176 177 188
f 176 188 187
f 177 178 189
f 177 189 188
f 178 179 190
f 178 190 189
f 179 180 191
f 179 191 190
f 180 181 192
f 180 192 191
f 181 182 193
f 181 193 192
f 182 183 194
f 182 194 193
f 183 184 195
f 183 195 194
f 196 186 197
f 186 187 198
f 186 198 197
f 187 188 199
f 187 199 198
f 188 189 200
f 188 200 199
f 189 190 201
f 189 201 200
f 190 191 202
f 190 202 201
f 191 192 203
f 191 203 202
f 192 193 204
f 192 204 203
f 193 194 205
f 193 205 204
f 194 195 206
f 194 206 205
f 207 197 208
f 207 208 209
f 197 198 210
f 197 210 208
f 198 199 211
f 198 211 210
f 199 200 212
f 199 212 211
f 200 201 213
f 200 213 212
f 201 202 214
f 201 214 213
f 202 203 215
f 202 215 214
f 203 204 216
f 203 216 215
f 204 205 217
f 204 217 216
f 205 206 218
f 205 218 217
f 209 208 219
f 209 219 220
f 208 210 221
f 208 221 219
f 210 211 222
f 210 222 221
f 211 212 223
f 211 223 222
f 212 213 224
f 212 224 223
f 213 214 225
f 213 225 224
f 214 215 226
f 214 226 225
f 215 216 227
f 215 227 226
f 216 217 228
f 216 228 227
f 217 218 229
f 217 229 228
f 220 219 230
f 220 230 231
f 219 221 232
f 219 232 230
f 221 222 233
f 221 233 232
f 222 223 234
f 222 234 233
f 223 224 235
f 223 235 234
f 224 225 236
f 224 236 235
f 225 226 237
f 225 237 236
f 226 227 238
f 226 238 237
f 227 228 239
f 227 239 238
f 228 229 240
f 228 240 239
f 231 230 241
f 231 241 242
f 230 232 243
f 230 243 241
f 232 233 244
f 232 244 243
f 233 234 245
f 233 245 244
f 234 235 246
f 234 246 245
f 235 236 247
f 235 247 246
f 236 237 248
f 236 248 247
f 237 238 249
f 237 249 248
f 238 239 250
f 238 250 249
f 239 240 251
f 239 251 250
f 242 241 252
f 242 252 253
f 241 243 254
f 241 254 252
f 243 244 255
f 243 255 254
f 244 245 256
f 244 256 255
f 245 246 257
f 245 257 256
f 246 247 258
f 246 258 257
f 247 248 259
f 247 259 258
f 248 249 260
f 248 260 259
f 249 250 261
f 249 261 260
f 250 251 262
f 250 262 261
f 253 252 263
f 253 263 264
f 252 254 265
f 252 265 263
f 254 255 266
f 254 266 265
f 255 256 267
f 255 267 266
f 256 257 268
f 256 268 267
f 257 258 269
f 257 269 268
f 258 259 270
f 258 270 269
f 259 260 271
f 259 271 270
f 260 261 272
f 260 272 271
f 261 262 273
f 261 273 272
f 264 263 274
f 264 274 275
f 263 265 276
f 263 276 274
f 265 266 277
f 265 277 276
f 266 267 278
f 266 278 277
f 267 268 279
f 267 279 278
f 268 269 280
f 268 280 279
f 269 270 281
f 269 281 280
f 270 271 282
f 270 282 281
f 271 272 283
f 271 283 282
f 272 273 284
f 272 284 283
f 275 274 285
f 275 285 286
f 274 276 287
f 274 287 285
f 276 277 288
f 276 288 287
f 277 278 289
f 277 289 288
f 278 279 290
f 278 290 289
f 279 280 291
f 279 291 290
f 280 281 292
f 280 292 291
f 281 282 293
f 281 293 292
f 282 283 294
f 282 294 293
f 283 284 295
f 283 295 294
f 286 285 296
f 286 296 297
f 285 287 298
f 285 298 296
f 287 288 299
f 287 299 298
f 288 289 300
f 288 300 299
f 289 290 301
f 289 301 300
f 290 291 302
f 290 302 301
f 291 292 303
f 291 303 302
f 292 293 304
f 292 304 303
f 293 294 305
f 293 305 304
f 294 295 306
f 294 306 305
f 297 296 307
f 297 307 308
f 296 298 309
f 296 309 307
f 298 299 310
f 298 310 309
f 312 311 313
f 133 134 314
f 134 152 314
f 152 315 314
f 315 133 314
f 149 311 316
f 151 149 316
f 311 317 316
f 317 151 316
f 152 153 318
f 153 163 318
f 163 319 318
f 319 152 318
f 150 151 320
f 162 150 320
f 151 321 320
f 321 162 320
f 163 164 322
f 164 174 322
f 174 323 322
f 323 163 322
f 161 162 324
f 173 161 324
f 162 325 324
f 325 173 324
f 174 175 326
f 175 185 326
f 185 327 326
f 327 174 326
f 172 173 328
f 184 172 328
f 173 329 328
f 329 184 328
f 185 186 330
f 186 196 330
f 196 331 330
f 331 185 330
f 196 197 332
f 197 207 332
f 207 333 332
f 333 196 332
f 334 299 300
f 299 334 310
f 300 335 334
f 336 310 334
f 337 300 301
f 301 338 337
f 337 335 300
f 339 301 302
f 302 340 339
f 339 338 301
f 341 302 303
f 303 342 341
f 341 340 302
f 343 303 304
f 304 344 343
f 343 342 303
f 345 304 305
f 305 346 345
f 345 344 304
f 305 306 347
f 306 348 347
f 347 346 305
f 349 308 307
f 307 350 349
f 308 349 351
f 352 308 351
f 353 307 309
f 309 354 353
f 353 355 307
f 355 350 307
f 356 309 310
f 310 357 356
f 356 354 309
f 358 310 336
f 358 357 310
f 360 359 361
f 359 362 363
f 359 363 361
f 362 364 365
f 362 365 363
f 364 366 365
f 361 363 367
f 361 367 368
f 363 365 369
f 363 369 367
f 365 370 369
f 372 371 373
f 371 374 375
f 371 375 373
f 374 376 377
f 374 377 375
f 376 378 379
f 376 379 377
f 378 380 381
f 378 381 379
f 380 382 383
f 380 383 381
f 382 368 384
f 382 384 383
f 368 367 385
f 368 385 384
f 367 369 386
f 367 386 385
f 369 387 386
f 388 373 389
f 373 375 390
f 373 390 389
f 375 377 391
f 375 391 390
f 377 379 392
f 377 392 391
f 379 381 393
f 379 393 392
f 381 383 394
f 381 394 393
f 383 384 395
f 383 395 394
f 384 385 396
f 384 396 395
f 385 386 397
f 385 397 396
f 386 398 397
f 399 389 400
f 389 390 401
f 389 401 400
f 390 391 402
f 390 402 401
f 391 392 403
f 391 403 402
f 392 393 404
f 392 404 403
f 393 394 405
f 393 405 404
f 394 395 406
f 394 406 405
f 395 396 407
f 395 407 406
f 396 397 408
f 396 408 407
f 397 409 408
f 410 400 411
f 400 401 412
f 400 412 411
f 401 402 413
f 401 413 412
f 402 403 414
f 402 414 413
f 403 404 415
f 403 415 414
f 404 405 416
f 404 416 415
f 405 406 417
f 405 417 416
f 406 407 418
f 406 418 417
f 407 408 419
f 407 419 418
f 408 409 420
f 408 420 419
f 421 411 422
f 411 412 423
f 411 423 422
f 412 413 424
f 412 424 423
f 413 414 425
f 413 425 424
f 414 415 426
f 414 426 425
f 415 416 427
f 415 427 426
f 416 417 428
f 416 428 427
f 417 418 429
f 417 429 428
f 418 419 430
f 418 430 429
f 419 420 431
f 419 431 430
f 432 422 433
f 432 433 434
f 422 423 435
f 422 435 433
f 423 424 436
f 423 436 435
f 424 425 437
f 424 437 436
f 425 426 438
f 425 438 437
f 426 427 439
f 426 439 438
f 427 428 440
f 427 440 439
f 428 429 441
f 428 441 440
f 429 430 442
f 429 442 441
f 430 431 443
f 430 443 442
f 434 433 444
f 434 444 445
f 433 435 446
f 433 446 444
f 435 436 447
f 435 447 446
f 436 437 448
f 436 448 447
f 437 438 449
f 437 449 448
f 438 439 450
f 438 450 449
f 439 440 451
f 439 451 450
f 440 441 452
f 440 452 451
f 441 442 453
f 441 453 452
f 442 443 454
f 442 454 453
f 445 444 455
f 445 455 456
f 444 446 457
f 444 457 455
f 446 447 458
f 446 458 457
f 447 448 459
f 447 459 458
f 448 449 460
f 448 460 459
f 449 450 461
f 449 461 460
f 450 451 462
f 450 462 461
f 451 452 463
f 451 463 462
f 452 453 464
f 452 464 463
f 453 454 465
f 453 465 464
f 456 455 466
f 456 466 467
f 455 457 468
f 455 468 466
f 457 458 469
f 457 469 468
f 458 459 470
f 458 470 469
f 459 460 471
f 459 471 470
f 460 461 472
f 460 472 471
f 461 462 473
f 461 473 472
f 462 463 474
f 462 474 473
f 463 464 475
f 463 475 474
f 464 465 476
f 464 476 475
f 467 466 477
f 467 477 478
f 466 468 479
f 466 479 477
f 468 469 480
f 468 480 479
f 469 470 481
f 469 481 480
f 470 471 482
f 470 482 481
f 471 472 483
f 471 483 482
f 472 473 484
f 472 484 483
f 473 474 485
f 473 485 484
f 474 475 486
f 474 486 485
f 475 476 487
f 475 487 486
f 478 477 488
f 478 488 489
f 477 479 490
f 477 490 488
f 479 480 491
f 479 491 490
f 480 481 492
f 480 492 491
f 481 482 493
f 481 493 492
f 482 483 494
f 482 494 493
f 483 484 495
f 483 495 494
f 484 485 496
f 484 496 495
f 485 486 497
f 485 497 496
f 486 487 498
f 486 498 497
f 489 488 499
f 489 499 500
f 488 490 501
f 488 501 499
f 490 491 502
f 490 502 501
f 491 492 503
f 491 503 502
f 492 493 504
f 492 504 503
f 493 494 505
f 493 505 504
f 494 495 506
f 494 506 505
f 495 496 507
f 495 507 506
f 496 497 508
f 496 508 507
f 497 498 509
f 497 509 508
f 500 499 510
f 500 510 511
f 499 501 512
f 499 512 510
f 501 502 513
f 501 513 512
f 502 503 514
f 502 514 513
f 503 504 515
f 503 515 514
f 504 505 516
f 504 516 515
f 505 506 517
f 505 517 516
f 506 507 518
f 506 518 517
f 507 508 519
f 507 519 518
f 508 509 520
f 508 520 519
f 511 510 521
f 511 521 522
f 510 512 523
f 510 523 521
f 512 513 524
f 512 524 523
f 513 514 525
f 513 525 524
f 514 515 526
f 514 526 525
f 515 516 527
f 515 527 526
f 516 517 528
f 516 528 527
f 517 518 529
f 517 529 528
f 518 519 530
f 518 530 529
f 519 520 531
f 519 531 530
f 522 521 532
f 522 532 533
f 521 523 534
f 521 534 532
f 523 524 535
f 523 535 534
f 536 524 525
f 524 536 535
f 525 537 536
f 538 535 536
f 539 525 526
f 526 540 539
f 539 541 525
f 541 537 525
f 542 526 527
f 527 543 542
f 542 544 526
f 544 540 526
f 545 527 528
f 528 546 545
f 545 543 527
f 547 528 529
f 529 548 547
f 547 549 528
f 549 546 528
f 550 529 530
f 530 551 550
f 550 548 529
f 552 530 531
f 531 553 552
f 552 554 530
f 554 551 530
f 555 533 532
f 532 556 555
f 533 555 557
f 558 533 557
f 532 534 559
f 560 532 559
f 534 561 559
f 560 562 532
f 562 556 532
f 534 535 563
f 564 534 563
f 535 565 563
f 564 566 534
f 566 561 534
f 567 535 538
f 535 567 565
f 569 568 570
f 569 570 571
f 568 572 573
f 568 573 570
f 572 574 575
f 572 575 573
f 574 576 577
f 574 577 575
f 576 578 579
f 576 579 577
f 578 580 581
f 578 581 579
f 580 582 583
f 580 583 581
f 582 584 585
f 582 585 583
f 584 586 587
f 584 587 585
f 586 588 589
f 586 589 587
f 588 590 591
f 588 591 589
f 590 592 593
f 590 593 591
f 592 594 595
f 592 595 593
f 594 596 597
f 594 597 595
f 596 598 599
f 596 599 597
f 598 600 601
f 598 601 599
f 600 602 603
f 600 603 601
f 602 604 605
f 602 605 603
f 604 606 607
f 604 607 605
f 606 569 571
f 606 571 607
f 571 570 608
f 571 608 609
f 570 573 610
f 570 610 608
f 573 575 611
f 573 611 610
f 575 577 612
f 575 612 611
f 577 579 613
f 577 613 612
f 579 581 614
f 579 614 613
f 581 583 615
f 581 615 614
f 583 585 616
f 583 616 615
f 585 587 617
f 585 617 616
f 587 589 618
f 587 618 617
f 589 591 619
f 589 619 618
f 591 593 620
f 591 620 619
f 593 595 621
f 593 621 620
f 595 597 622
f 595 622 621
f 597 599 623
f 597 623 622
f 599 601 624
f 599 624 623
f 601 603 625
f 601 625 624
f 603 605 626
f 603 626 625
f 605 607 627
f 605 627 626
f 607 571 609
f 607 609 627
f 576 574 536
f 576 536 537
f 536 628 537
f 628 536 538
f 536 574 538
f 578 576 539
f 578 539 540
f 539 628 540
f 628 541 537
f 541 576 537
f 576 541 539
f 541 628 539
f 580 578 542
f 580 542 543
f 542 628 543
f 628 544 540
f 544 578 540
f 578 544 542
f 544 628 542
f 582 580 545
f 582 545 546
f 545 628 546
f 628 545 543
f 545 580 543
f 584 582 547
f 584 547 548
f 547 628 548
f 628 549 546
f 549 582 546
f 582 549 547
f 549 628 547
f 586 584 550
f 586 550 551
f 550 628 551
f 628 550 548
f 550 584 548
f 588 586 552
f 588 552 553
f 552 628 553
f 628 554 551
f 554 586 551
f 586 554 552
f 554 628 552
f 568 569 555
f 568 555 556
f 555 628 556
f 569 557 555
f 557 628 555
f 628 557 558
f 572 568 560
f 628 559 560
f 559 572 560
f 572 559 561
f 574 572 561
f 628 562 556
f 562 568 556
f 568 562 560
f 562 628 560
f 559 628 564
f 563 574 564
f 563 628 538
f 574 563 565
f 574 566 564
f 566 574 561
f 538 574 567
f 574 565 567
f 372 373 312
f 373 388 312
f 388 313 312
f 313 372 312
f 314 629 315
f 388 389 317
f 389 399 317
f 399 316 317
f 316 388 317
f 364 629 319
f 366 364 319
f 629 318 319
f 318 366 319
f 399 400 321
f 400 410 321
f 410 320 321
f 320 399 321
f 365 366 323
f 370 365 323
f 366 322 323
f 322 370 323
f 410 411 325
f 411 421 325
f 421 324 325
f 324 410 325
f 369 370 327
f 387 369 327
f 370 326 327
f 326 387 327
f 421 422 329
f 422 432 329
f 432 328 329
f 328 421 329
f 386 387 331
f 398 386 331
f 387 330 331
f 330 398 331
f 397 398 333
f 409 397 333
f 398 332 333
f 332 409 333
f 596 594 334
f 596 334 335
f 334 628 335
f 628 334 336
f 334 594 336
f 598 596 337
f 598 337 338
f 337 628 338
f 628 337 335
f 337 596 335
f 600 598 339
f 600 339 340
f 339 628 340
f 628 339 338
f 339 598 338
f 602 600 341
f 602 341 342
f 341 628 342
f 628 341 340
f 341 600 340
f 604 602 343
f 604 343 344
f 343 628 344
f 628 343 342
f 343 602 342
f 606 604 345
f 606 345 346
f 345 628 346
f 628 345 344
f 345 604 344
f 557 569 348
f 569 606 348
f 606 347 348
f 347 557 348
f 557 347 558
f 628 558 347
f 628 347 346
f 347 606 346
f 590 588 349
f 590 349 350
f 349 628 350
f 588 351 349
f 351 628 349
f 628 351 553
f 351 588 352
f 588 553 352
f 553 351 352
f 592 590 353
f 592 353 354
f 353 628 354
f 628 355 350
f 355 590 350
f 590 355 353
f 355 628 353
f 594 592 356
f 594 356 357
f 356 628 357
f 628 356 354
f 356 592 354
f 628 336 358
f 336 594 358
f 628 358 357
f 358 594 357
f 630 139 631
f 139 630 141
f 139 632 631
f 632 139 137
f 137 633 632
f 634 141 635
f 141 634 143
f 141 636 635
f 630 636 141
f 637 143 638
f 143 637 145
f 143 639 638
f 639 143 634
f 640 145 641
f 145 640 147
f 145 642 641
f 642 145 637
f 643 147 644
f 147 643 149
f 147 645 644
f 645 147 640
f 646 149 647
f 149 646 311
f 149 648 647
f 648 149 643
f 649 311 646
f 311 649 313
f 633 137 650
f 137 658 650
f 132 133 651
f 133 654 651
f 132 651 652
f 653 132 652
f 132 653 135
f 135 653 655
f 135 655 656
f 657 135 656
f 135 657 137
f 137 657 658
f 659 313 649
f 313 659 312
f 660 312 659
f 662 661 663
f 664 662 663
f 662 360 665
f 360 666 665
f 666 360 361
f 667 662 665
f 667 661 662
f 361 668 666
f 668 361 368
f 669 371 670
f 371 669 374
f 371 671 670
f 672 374 673
f 374 672 376
f 374 674 673
f 674 374 669
f 675 376 676
f 376 675 378
f 376 677 676
f 677 376 672
f 678 378 679
f 378 678 380
f 378 680 679
f 680 378 675
f 380 681 682
f 683 380 682
f 380 683 382
f 380 684 681
f 684 380 678
f 382 685 686
f 687 382 686
f 382 687 368
f 683 685 382
f 382 688 683
f 668 368 687
f 368 689 687
f 690 662 664
f 662 690 691
f 662 691 692
f 693 662 692
f 662 693 360
f 360 693 694
f 360 694 695
f 360 695 696
f 697 360 696
f 360 697 359
f 359 697 698
f 359 698 699
f 700 359 699
f 359 700 362
f 362 700 701
f 362 701 702
f 703 362 702
f 362 703 364
f 364 703 704
f 364 704 705
f 706 364 705
f 364 706 629
f 629 706 707
f 629 707 315
f 710 315 707
f 315 710 708
f 709 315 708
f 315 709 314
f 711 314 709
f 371 660 671
f 660 371 372
f 660 372 712
f 372 713 712
f 372 714 713
f 716 715 717
f 715 718 717
f 718 719 717
f 719 720 717
f 720 721 717
f 721 722 717
f 722 723 717
f 723 724 717
f 724 725 717
f 725 726 717
f 726 727 717
f 727 728 717
f 728 729 717
f 729 730 717
f 730 731 717
f 731 732 717
f 732 733 717
f 733 734 717
f 734 735 717
f 735 716 717
f 631 722 630
f 722 631 723
f 723 631 632
f 723 632 633
f 635 721 634
f 721 635 722
f 722 635 636
f 722 636 630
f 638 720 637
f 720 638 721
f 634 721 639
f 721 638 639
f 641 719 640
f 719 641 720
f 637 720 642
f 720 641 642
f 644 718 643
f 718 644 719
f 640 719 645
f 719 644 645
f 647 715 646
f 715 647 718
f 643 718 648
f 718 647 648
f 646 715 649
f 650 723 633
f 723 650 724
f 724 650 658
f 726 651 654
f 651 726 725
f 652 725 653
f 725 652 651
f 725 655 653
f 655 725 724
f 656 724 657
f 724 656 655
f 724 658 657
f 649 715 659
f 659 715 716
f 732 731 664
f 663 732 664
f 670 735 669
f 735 670 716
f 716 670 671
f 673 734 672
f 734 673 735
f 669 735 674
f 735 673 674
f 676 733 675
f 733 676 734
f 672 734 677
f 734 676 677
f 679 732 678
f 732 679 733
f 675 733 680
f 733 679 680
f 681 663 661
f 663 681 732
f 661 682 681
f 682 661 683
f 678 732 684
f 732 681 684
f 685 665 666
f 665 685 667
f 666 686 685
f 686 666 687
f 683 661 667
f 667 685 683
f 687 666 668
f 664 731 690
f 731 691 690
f 731 692 691
f 692 731 693
f 731 694 693
f 731 730 694
f 730 695 694
f 730 696 695
f 696 730 697
f 730 698 697
f 698 730 729
f 699 729 700
f 729 699 698
f 729 701 700
f 701 729 728
f 702 728 703
f 728 702 701
f 728 704 703
f 704 728 727
f 705 727 706
f 727 705 704
f 727 707 706
f 707 727 726
f 707 726 710
f 654 708 726
f 710 726 708
f 716 671 660
f 659 713 660
f 712 660 713
f 716 712 713
f 712 716 660
f 659 716 714
f 713 659 714
f 716 713 714
